fr,X,Y,Z
1,197.04048,136.142848,0.341632859178113
1,350.430178,205.905152,0
1,390.851704,221.67104,0.758092491137984
1,12.69485,190.236057,0.0749763349521632
1,726.737144,186.609271,0.320002539493196
1,71.044056,211.926556,0.895786573070422
1,37.226114,200.614004,0.147247853371061
1,512.06659,129.029096,0.892065726277581
1,267.460108,206.199744,0.797929218034129
1,308.742725,241.922316,0.43263245262622
1,76.820134,198.080734,0.36937517983223
1,645.543866,206.05171,0.840223743329462
1,443.116504,178.274677,0.109109569812182
1,291.815857,193.652191,0.0669790398618888
1,204.154382,217.431683,1
1,180.214879,130.768153,0.204740977518496
1,386.002314,280.681333,0.347061142375871
1,339.019645,119.140467,0.427510213305779
1,535.726494,248.230886,0.24441566611023
1,651.120394,201.452546,0.0865543154493214
2,216.056958,136.142848,0.341632859178113
2,354.888853,205.905152,0
2,411.490705,221.67104,0.758092491137984
2,22.961691,190.236057,0.0749763349521632
2,749.45342,186.609271,0.320002539493196
2,86.512644,211.926556,0.895786573070422
2,52.033882,200.614004,0.147247853371061
2,524.352479,129.029096,0.892065726277581
2,287.747716,206.199744,0.797929218034129
2,328.789705,241.922316,0.43263245262622
2,100.779278,198.080734,0.36937517983223
2,664.028543,206.05171,0.840223743329462
2,455.632978,178.274677,0.109109569812182
2,301.50191,193.652191,0.0669790398618888
2,213.012944,217.431683,1
2,194.170564,130.768153,0.204740977518496
2,387.796097,280.681333,0.347061142375871
2,354.415722,119.140467,0.427510213305779
2,550.394151,248.230886,0.24441566611023
2,662.093273,201.452546,0.0865543154493214
3,235.073435,136.142848,0.341632859178113
3,359.347528,205.905152,0
3,432.129706,221.67104,0.758092491137984
3,33.228531,190.236057,0.0749763349521632
3,-58.074172,186.609271,0.320002539493196
3,101.981233,211.926556,0.895786573070422
3,66.84165,200.614004,0.147247853371061
3,536.638367,129.029096,0.892065726277581
3,308.035324,206.199744,0.797929218034129
3,348.836686,241.922316,0.43263245262622
3,124.738422,198.080734,0.36937517983223
3,682.51322,206.05171,0.840223743329462
3,468.149452,178.274677,0.109109569812182
3,311.187963,193.652191,0.0669790398618888
3,221.871506,217.431683,1
3,208.126248,130.768153,0.204740977518496
3,389.58988,280.681333,0.347061142375871
3,369.811799,119.140467,0.427510213305779
3,565.061809,248.230886,0.24441566611023
3,673.066153,201.452546,0.0865543154493214
4,254.089913,136.142848,0.341632859178113
4,363.806203,205.905152,0
4,452.768707,221.67104,0.758092491137984
4,43.495372,190.236057,0.0749763349521632
4,-35.357897,186.609271,0.320002539493196
4,117.449821,211.926556,0.895786573070422
4,81.649418,200.614004,0.147247853371061
4,548.924255,129.029096,0.892065726277581
4,328.322933,206.199744,0.797929218034129
4,368.883666,241.922316,0.43263245262622
4,148.697566,198.080734,0.36937517983223
4,700.997898,206.05171,0.840223743329462
4,480.665925,178.274677,0.109109569812182
4,320.874016,193.652191,0.0669790398618888
4,230.730069,217.431683,1
4,222.081933,130.768153,0.204740977518496
4,391.383663,280.681333,0.347061142375871
4,385.207876,119.140467,0.427510213305779
4,579.729466,248.230886,0.24441566611023
4,684.039032,201.452546,0.0865543154493214
5,273.10639,136.142848,0.341632859178113
5,368.264879,205.905152,0
5,473.407709,221.67104,0.758092491137984
5,53.762212,190.236057,0.0749763349521632
5,-12.641621,186.609271,0.320002539493196
5,132.918409,211.926556,0.895786573070422
5,96.457186,200.614004,0.147247853371061
5,561.210144,129.029096,0.892065726277581
5,348.610541,206.199744,0.797929218034129
5,388.930646,241.922316,0.43263245262622
5,172.656709,198.080734,0.36937517983223
5,719.482575,206.05171,0.840223743329462
5,493.182399,178.274677,0.109109569812182
5,330.560069,193.652191,0.0669790398618888
5,239.588631,217.431683,1
5,236.037618,130.768153,0.204740977518496
5,393.177447,280.681333,0.347061142375871
5,400.603953,119.140467,0.427510213305779
5,594.397123,248.230886,0.24441566611023
5,695.011912,201.452546,0.0865543154493214
6,292.122868,136.142848,0.341632859178113
6,372.723554,205.905152,0
6,494.04671,221.67104,0.758092491137984
6,64.029053,190.236057,0.0749763349521632
6,10.074654,186.609271,0.320002539493196
6,148.386998,211.926556,0.895786573070422
6,111.264954,200.614004,0.147247853371061
6,573.496032,129.029096,0.892065726277581
6,368.89815,206.199744,0.797929218034129
6,408.977626,241.922316,0.43263245262622
6,196.615853,198.080734,0.36937517983223
6,737.967252,206.05171,0.840223743329462
6,505.698873,178.274677,0.109109569812182
6,340.246122,193.652191,0.0669790398618888
6,248.447193,217.431683,1
6,249.993303,130.768153,0.204740977518496
6,394.97123,280.681333,0.347061142375871
6,416.00003,119.140467,0.427510213305779
6,609.06478,248.230886,0.24441566611023
6,705.984791,201.452546,0.0865543154493214
7,311.139345,136.142848,0.341632859178113
7,377.182229,205.905152,0
7,514.685711,221.67104,0.758092491137984
7,74.295893,190.236057,0.0749763349521632
7,32.79093,186.609271,0.320002539493196
7,163.855586,211.926556,0.895786573070422
7,126.072722,200.614004,0.147247853371061
7,585.781921,129.029096,0.892065726277581
7,389.185758,206.199744,0.797929218034129
7,429.024606,241.922316,0.43263245262622
7,220.574997,198.080734,0.36937517983223
7,-13.416355,206.05171,0.840223743329462
7,518.215346,178.274677,0.109109569812182
7,349.932175,193.652191,0.0669790398618888
7,257.305755,217.431683,1
7,263.948988,130.768153,0.204740977518496
7,396.765013,280.681333,0.347061142375871
7,431.396107,119.140467,0.427510213305779
7,623.732437,248.230886,0.24441566611023
7,716.957671,201.452546,0.0865543154493214
8,330.155823,136.142848,0.341632859178113
8,381.640904,205.905152,0
8,535.324712,221.67104,0.758092491137984
8,84.562734,190.236057,0.0749763349521632
8,55.507205,186.609271,0.320002539493196
8,179.324175,211.926556,0.895786573070422
8,140.88049,200.614004,0.147247853371061
8,598.067809,129.029096,0.892065726277581
8,409.473367,206.199744,0.797929218034129
8,449.071587,241.922316,0.43263245262622
8,244.534141,198.080734,0.36937517983223
8,5.068322,206.05171,0.840223743329462
8,530.73182,178.274677,0.109109569812182
8,359.618228,193.652191,0.0669790398618888
8,266.164317,217.431683,1
8,277.904673,130.768153,0.204740977518496
8,398.558796,280.681333,0.347061142375871
8,446.792184,119.140467,0.427510213305779
8,638.400095,248.230886,0.24441566611023
8,727.93055,201.452546,0.0865543154493214
9,349.1723,136.142848,0.341632859178113
9,386.09958,205.905152,0
9,555.963714,221.67104,0.758092491137984
9,94.829574,190.236057,0.0749763349521632
9,78.223481,186.609271,0.320002539493196
9,194.792763,211.926556,0.895786573070422
9,155.688258,200.614004,0.147247853371061
9,610.353698,129.029096,0.892065726277581
9,429.760975,206.199744,0.797929218034129
9,469.118567,241.922316,0.43263245262622
9,268.493285,198.080734,0.36937517983223
9,23.552999,206.05171,0.840223743329462
9,543.248294,178.274677,0.109109569812182
9,369.304281,193.652191,0.0669790398618888
9,275.02288,217.431683,1
9,291.860358,130.768153,0.204740977518496
9,400.352579,280.681333,0.347061142375871
9,462.188261,119.140467,0.427510213305779
9,653.067752,248.230886,0.24441566611023
9,738.90343,201.452546,0.0865543154493214
10,368.188778,136.142848,0.341632859178113
10,390.558255,205.905152,0
10,576.602715,221.67104,0.758092491137984
10,105.096415,190.236057,0.0749763349521632
10,100.939756,186.609271,0.320002539493196
10,210.261351,211.926556,0.895786573070422
10,170.496026,200.614004,0.147247853371061
10,622.639586,129.029096,0.892065726277581
10,450.048583,206.199744,0.797929218034129
10,489.165547,241.922316,0.43263245262622
10,292.452429,198.080734,0.36937517983223
10,42.037676,206.05171,0.840223743329462
10,555.764768,178.274677,0.109109569812182
10,378.990334,193.652191,0.0669790398618888
10,283.881442,217.431683,1
10,305.816043,130.768153,0.204740977518496
10,402.146362,280.681333,0.347061142375871
10,477.584338,119.140467,0.427510213305779
10,667.735409,248.230886,0.24441566611023
10,749.876309,201.452546,0.0865543154493214
11,387.205255,136.142848,0.341632859178113
11,395.01693,205.905152,0
11,597.241716,221.67104,0.758092491137984
11,115.363255,190.236057,0.0749763349521632
11,123.656032,186.609271,0.320002539493196
11,225.72994,211.926556,0.895786573070422
11,185.303794,200.614004,0.147247853371061
11,634.925474,129.029096,0.892065726277581
11,470.336192,206.199744,0.797929218034129
11,509.212527,241.922316,0.43263245262622
11,316.411573,198.080734,0.36937517983223
11,60.522354,206.05171,0.840223743329462
11,568.281241,178.274677,0.109109569812182
11,388.676387,193.652191,0.0669790398618888
11,292.740004,217.431683,1
11,319.771728,130.768153,0.204740977518496
11,403.940146,280.681333,0.347061142375871
11,492.980415,119.140467,0.427510213305779
11,682.403066,248.230886,0.24441566611023
11,-78.114278,201.452546,0.0865543154493214
12,406.221733,136.142848,0.341632859178113
12,399.475606,205.905152,0
12,617.880717,221.67104,0.758092491137984
12,125.630096,190.236057,0.0749763349521632
12,146.372307,186.609271,0.320002539493196
12,241.198528,211.926556,0.895786573070422
12,200.111562,200.614004,0.147247853371061
12,647.211363,129.029096,0.892065726277581
12,490.6238,206.199744,0.797929218034129
12,529.259507,241.922316,0.43263245262622
12,340.370716,198.080734,0.36937517983223
12,79.007031,206.05171,0.840223743329462
12,580.797715,178.274677,0.109109569812182
12,398.362439,193.652191,0.0669790398618888
12,301.598566,217.431683,1
12,333.727413,130.768153,0.204740977518496
12,405.733929,280.681333,0.347061142375871
12,508.376492,119.140467,0.427510213305779
12,697.070723,248.230886,0.24441566611023
12,-67.141398,201.452546,0.0865543154493214
